{
    "current_page": 1,
    "data": [
        {
            "id": 1,
            "title": null,
            "education": null,
            "name": "John",
            "surname": "Doe",
            "birth_date": "1970-01-01",
            "sex": "male",
            "nationality": null,
            "created_at": "2018-06-22 11:49:57",
            "updated_at": "2019-07-02 06:45:01",
            "customer_group_id": null,
            "is_customer": 1,
            "deleted_at": null,
            "addresses": [],
            "meters": [
                {
                    "id": 1,
                    "connection_type_id": 1,
                    "created_at": "2018-06-22 11:59:46",
                    "updated_at": "2018-12-17 14:20:23",
                    "connection_group_id": 1,
                    "meter": {
                        "id": 1,
                        "serial_number": "47000124512",
                        "meter_type_id": 1,
                        "in_use": 1,
                        "manufacturer_id": 1,
                        "created_at": "2018-06-22 11:50:09",
                        "updated_at": "2018-12-17 14:20:23",
                        "deleted_at": null
                    }
                }
            ]
        }
    ],
    "first_page_url": "http:\/\/mpmanager.com\/api\/people?page=1",
    "from": 1,
    "last_page": 331,
    "last_page_url": "http:\/\/mpmanager.com\/api\/people?page=331",
    "next_page_url": "http:\/\/mpmanager.com\/api\/people?page=2",
    "path": "http:\/\/mpmanager.com\/api\/people",
    "per_page": 15,
    "prev_page_url": null,
    "to": 15,
    "total": 4963
}
