{
    "current_page": 1,
    "data": [
        {
            "id": 91228,
            "receiver": "dummy",
            "trigger_type": null,
            "trigger_id": null,
            "body": "asdasd",
            "status": 0,
            "uuid": null,
            "direction": 1,
            "sender_id": 22,
            "created_at": "2021-07-09T16:10:04.000000Z",
            "updated_at": "2021-07-09T16:10:04.000000Z",
            "address": null
        },
        {
            "id": 91198,
            "receiver": "Agent-1",
            "trigger_type": 0,
            "trigger_id": 105015,
            "body": "Service Charge: TZS 250  VAT 18% \t-45 \n Jumla \t -205",
            "status": 0,
            "uuid": null,
            "direction": 1,
            "sender_id": null,
            "created_at": "2020-11-17T11:34:12.000000Z",
            "updated_at": "2020-11-17T11:34:12.000000Z",
            "address": null
        },
        {
            "id": 91151,
            "receiver": "+16035553142",
            "trigger_type": 0,
            "trigger_id": 104969,
            "body": "Meter Number:SM15R-01-000002D5, Token : 6664 8965 0265 8232 7729, Amount:15987 TZs, MicroPowerManager",
            "status": 0,
            "uuid": null,
            "direction": 1,
            "sender_id": null,
            "created_at": "2019-03-25T00:00:00.000000Z",
            "updated_at": "2019-03-25T00:00:00.000000Z",
            "address": {
                "id": 30792,
                "is_primary": 1,
                "email": null,
                "phone": "+16035553142",
                "street": "654 Akula St",
                "city_id": null,
                "geo_id": null,
                "created_at": "2020-11-10T13:22:31.000000Z",
                "updated_at": "2020-11-10T13:22:31.000000Z",
                "owner": null
            }
        },
        {
            "id": 91042,
            "receiver": "+16035551234",
            "trigger_type": 0,
            "trigger_id": 104862,
            "body": "Meter Number:SM15R-01-000002D1, Token : 6664 8965 0265 8232 7729, Amount:16911 TZs, MicroPowerManager",
            "status": 0,
            "uuid": null,
            "direction": 1,
            "sender_id": null,
            "created_at": "2019-10-15T00:00:00.000000Z",
            "updated_at": "2019-10-15T00:00:00.000000Z",
            "address": {
                "id": 30790,
                "is_primary": 1,
                "email": null,
                "phone": "+16035551234",
                "street": "123 Constitution Dr",
                "city_id": null,
                "geo_id": null,
                "created_at": "2020-11-10T13:22:31.000000Z",
                "updated_at": "2020-11-10T13:22:31.000000Z",
                "owner": null
            }
        },
        {
            "id": 91036,
            "receiver": "+255778821152",
            "trigger_type": 0,
            "trigger_id": 104856,
            "body": "Meter Number:47000297730, Token : 6664 8965 0265 8232 7729, Amount:9471 TZs, MicroPowerManager",
            "status": 0,
            "uuid": null,
            "direction": 1,
            "sender_id": null,
            "created_at": "2019-10-28T00:00:00.000000Z",
            "updated_at": "2019-10-28T00:00:00.000000Z",
            "address": {
                "id": 50,
                "is_primary": 1,
                "email": "",
                "phone": "+255778821152",
                "street": "-",
                "city_id": 1,
                "geo_id": null,
                "created_at": "2018-08-15T13:07:56.000000Z",
                "updated_at": "2018-11-21T10:15:18.000000Z",
                "owner": {
                    "id": 62,
                    "title": null,
                    "education": null,
                    "name": "Ambonisye",
                    "surname": "Furaha",
                    "birth_date": null,
                    "sex": null,
                    "nationality": null,
                    "created_at": "2018-08-15T13:07:56.000000Z",
                    "updated_at": "2020-03-04T19:58:57.000000Z",
                    "customer_group_id": null,
                    "is_customer": 1,
                    "deleted_at": null
                }
            }
        },
        {
            "id": 91035,
            "receiver": "+915396398161",
            "trigger_type": 0,
            "trigger_id": 104855,
            "body": "Meter Number:SM60R-01-77777121, Token : 6664 8965 0265 8232 7729, Amount:11891 TZs, MicroPowerManager",
            "status": 0,
            "uuid": null,
            "direction": 1,
            "sender_id": null,
            "created_at": "2019-01-11T00:00:00.000000Z",
            "updated_at": "2019-01-11T00:00:00.000000Z",
            "address": {
                "id": 30788,
                "is_primary": 1,
                "email": null,
                "phone": "+915396398161",
                "street": "74 sk 13\/9  esentepe",
                "city_id": null,
                "geo_id": null,
                "created_at": "2020-11-10T13:22:31.000000Z",
                "updated_at": "2020-11-10T13:22:31.000000Z",
                "owner": null
            }
        },
        {
            "id": 91028,
            "receiver": "+16035554213",
            "trigger_type": 0,
            "trigger_id": 104848,
            "body": "Meter Number:SM15R-01-000002D4, Token : 6664 8965 0265 8232 7729, Amount:12982 TZs, MicroPowerManager",
            "status": 0,
            "uuid": null,
            "direction": 1,
            "sender_id": null,
            "created_at": "2019-06-01T00:00:00.000000Z",
            "updated_at": "2019-06-01T00:00:00.000000Z",
            "address": {
                "id": 30786,
                "is_primary": 1,
                "email": null,
                "phone": "+16035554213",
                "street": "456 Miranda St",
                "city_id": null,
                "geo_id": null,
                "created_at": "2020-11-10T13:22:31.000000Z",
                "updated_at": "2020-11-10T13:22:31.000000Z",
                "owner": null
            }
        },
        {
            "id": 91019,
            "receiver": "+255730631424",
            "trigger_type": 0,
            "trigger_id": 104840,
            "body": "Meter Number:47000508953, Token : 6664 8965 0265 8232 7729, Amount:3969 TZs, MicroPowerManager",
            "status": 0,
            "uuid": null,
            "direction": 1,
            "sender_id": null,
            "created_at": "2020-08-29T00:00:00.000000Z",
            "updated_at": "2020-08-29T00:00:00.000000Z",
            "address": {
                "id": 406,
                "is_primary": 1,
                "email": "",
                "phone": "+255730631424",
                "street": "-",
                "city_id": 2,
                "geo_id": null,
                "created_at": "2019-04-30T14:53:56.000000Z",
                "updated_at": "2019-07-03T12:02:29.000000Z",
                "owner": {
                    "id": 414,
                    "title": null,
                    "education": null,
                    "name": "Seghen",
                    "surname": "Adhra",
                    "birth_date": null,
                    "sex": null,
                    "nationality": null,
                    "created_at": "2019-04-30T14:53:56.000000Z",
                    "updated_at": "2020-03-04T19:59:00.000000Z",
                    "customer_group_id": null,
                    "is_customer": 1,
                    "deleted_at": null
                }
            }
        },
        {
            "id": 90994,
            "receiver": "+255733004400",
            "trigger_type": 0,
            "trigger_id": 104815,
            "body": "Meter Number:47000518143, Token : 6664 8965 0265 8232 7729, Amount:11617 TZs, MicroPowerManager",
            "status": 0,
            "uuid": null,
            "direction": 1,
            "sender_id": null,
            "created_at": "2020-02-02T00:00:00.000000Z",
            "updated_at": "2020-02-02T00:00:00.000000Z",
            "address": {
                "id": 2191,
                "is_primary": 1,
                "email": "",
                "phone": "+255733004400",
                "street": "",
                "city_id": 5,
                "geo_id": null,
                "created_at": "2019-07-02T16:32:46.000000Z",
                "updated_at": "2019-07-02T16:32:46.000000Z",
                "owner": {
                    "id": 1352,
                    "title": null,
                    "education": null,
                    "name": "Tulinagwe",
                    "surname": "Mosi",
                    "birth_date": null,
                    "sex": null,
                    "nationality": null,
                    "created_at": "2019-07-02T16:32:46.000000Z",
                    "updated_at": "2020-03-04T19:59:11.000000Z",
                    "customer_group_id": null,
                    "is_customer": 1,
                    "deleted_at": null
                }
            }
        },
        {
            "id": 90987,
            "receiver": "+2553123231",
            "trigger_type": 0,
            "trigger_id": 104808,
            "body": "Meter Number:SM60R-11-12341234, Token : 6664 8965 0265 8232 7729, Amount:7351 TZs, MicroPowerManager",
            "status": 0,
            "uuid": null,
            "direction": 1,
            "sender_id": null,
            "created_at": "2019-01-31T00:00:00.000000Z",
            "updated_at": "2019-01-31T00:00:00.000000Z",
            "address": {
                "id": 30774,
                "is_primary": 1,
                "email": null,
                "phone": "+2553123231",
                "street": "sokak4",
                "city_id": null,
                "geo_id": null,
                "created_at": "2020-11-10T13:22:29.000000Z",
                "updated_at": "2020-11-10T13:22:29.000000Z",
                "owner": {
                    "id": 5386,
                    "title": null,
                    "education": null,
                    "name": "Test",
                    "surname": "Agent",
                    "birth_date": null,
                    "sex": "male",
                    "nationality": null,
                    "created_at": "2021-09-21T07:54:52.000000Z",
                    "updated_at": "2021-09-21T07:54:52.000000Z",
                    "customer_group_id": null,
                    "is_customer": 0,
                    "deleted_at": null
                }
            }
        },
        {
            "id": 90957,
            "receiver": "+90666",
            "trigger_type": 0,
            "trigger_id": 104778,
            "body": "Meter Number:SM60R-12-12345678, Token : 6664 8965 0265 8232 7729, Amount:13505 TZs, MicroPowerManager",
            "status": 0,
            "uuid": null,
            "direction": 1,
            "sender_id": null,
            "created_at": "2020-07-17T00:00:00.000000Z",
            "updated_at": "2020-07-17T00:00:00.000000Z",
            "address": {
                "id": 30778,
                "is_primary": 1,
                "email": null,
                "phone": "+90666",
                "street": "74 sk 13\/9  esentepe",
                "city_id": null,
                "geo_id": null,
                "created_at": "2020-11-10T13:22:31.000000Z",
                "updated_at": "2020-11-10T13:22:31.000000Z",
                "owner": null
            }
        },
        {
            "id": 90948,
            "receiver": "+255740196369",
            "trigger_type": 0,
            "trigger_id": 104769,
            "body": "Meter Number:47000507013, Token : 6664 8965 0265 8232 7729, Amount:5623 TZs, MicroPowerManager",
            "status": 0,
            "uuid": null,
            "direction": 1,
            "sender_id": null,
            "created_at": "2020-03-30T00:00:00.000000Z",
            "updated_at": "2020-03-30T00:00:00.000000Z",
            "address": {
                "id": 389,
                "is_primary": 1,
                "email": "",
                "phone": "+255740196369",
                "street": "-",
                "city_id": 2,
                "geo_id": null,
                "created_at": "2019-04-27T07:27:19.000000Z",
                "updated_at": "2019-07-03T09:09:02.000000Z",
                "owner": {
                    "id": 397,
                    "title": null,
                    "education": null,
                    "name": "Banji",
                    "surname": "Amali",
                    "birth_date": null,
                    "sex": null,
                    "nationality": null,
                    "created_at": "2019-04-27T07:27:19.000000Z",
                    "updated_at": "2020-03-04T19:59:00.000000Z",
                    "customer_group_id": null,
                    "is_customer": 1,
                    "deleted_at": null
                }
            }
        },
        {
            "id": 90917,
            "receiver": "+905396398160",
            "trigger_type": 0,
            "trigger_id": 104738,
            "body": "Meter Number:SM60R-12-11111111, Token : 6664 8965 0265 8232 7729, Amount:4881 TZs, MicroPowerManager",
            "status": 0,
            "uuid": null,
            "direction": 1,
            "sender_id": null,
            "created_at": "2020-08-30T00:00:00.000000Z",
            "updated_at": "2020-08-30T00:00:00.000000Z",
            "address": {
                "id": 30784,
                "is_primary": 1,
                "email": null,
                "phone": "+905396398160",
                "street": "7aaaaaa",
                "city_id": null,
                "geo_id": null,
                "created_at": "2020-11-10T13:22:31.000000Z",
                "updated_at": "2020-11-10T13:22:31.000000Z",
                "owner": null
            }
        },
        {
            "id": 90912,
            "receiver": "+16035554321",
            "trigger_type": 0,
            "trigger_id": 104733,
            "body": "Meter Number:SM15R-01-000002D2, Token : 6664 8965 0265 8232 7729, Amount:11122 TZs, MicroPowerManager",
            "status": 0,
            "uuid": null,
            "direction": 1,
            "sender_id": null,
            "created_at": "2020-08-16T00:00:00.000000Z",
            "updated_at": "2020-08-16T00:00:00.000000Z",
            "address": {
                "id": 30782,
                "is_primary": 1,
                "email": null,
                "phone": "+16035554321",
                "street": "321 Excelsior Lane",
                "city_id": null,
                "geo_id": null,
                "created_at": "2020-11-10T13:22:31.000000Z",
                "updated_at": "2020-11-10T13:22:31.000000Z",
                "owner": null
            }
        },
        {
            "id": 90902,
            "receiver": "+905396398060",
            "trigger_type": 0,
            "trigger_id": 104723,
            "body": "Meter Number:SM60R-12-11111112, Token : 6664 8965 0265 8232 7729, Amount:18134 TZs, MicroPowerManager",
            "status": 0,
            "uuid": null,
            "direction": 1,
            "sender_id": null,
            "created_at": "2019-08-27T00:00:00.000000Z",
            "updated_at": "2019-08-27T00:00:00.000000Z",
            "address": {
                "id": 30780,
                "is_primary": 1,
                "email": null,
                "phone": "+905396398060",
                "street": "bizimev",
                "city_id": null,
                "geo_id": null,
                "created_at": "2020-11-10T13:22:31.000000Z",
                "updated_at": "2020-11-10T13:22:31.000000Z",
                "owner": null
            }
        },
        {
            "id": 90892,
            "receiver": "+111111",
            "trigger_type": 0,
            "trigger_id": 104713,
            "body": "Meter Number:-, Token : 6664 8965 0265 8232 7729, Amount:350 TZs, MicroPowerManager",
            "status": 0,
            "uuid": null,
            "direction": 1,
            "sender_id": null,
            "created_at": "2020-11-11T00:16:05.000000Z",
            "updated_at": "2020-11-11T00:16:05.000000Z",
            "address": null
        },
        {
            "id": 90891,
            "receiver": "+Agent-1",
            "trigger_type": 0,
            "trigger_id": 104712,
            "body": "Meter Number:47000124512, Token : 6664 8965 0265 8232 7729, Amount:250 TZs, Service Charge :250 TZs, MicroPowerManager",
            "status": 0,
            "uuid": null,
            "direction": 1,
            "sender_id": null,
            "created_at": "2020-11-11T00:15:47.000000Z",
            "updated_at": "2020-11-11T00:15:47.000000Z",
            "address": null
        },
        {
            "id": 90721,
            "receiver": "+255747261152",
            "trigger_type": 0,
            "trigger_id": 104512,
            "body": "Meter Number:47000508227, Token : 6664 8965 0265 8232 7729, Amount:1702 TZs, MicroPowerManager",
            "status": 0,
            "uuid": null,
            "direction": 1,
            "sender_id": null,
            "created_at": "2020-03-18T00:00:00.000000Z",
            "updated_at": "2020-03-18T00:00:00.000000Z",
            "address": {
                "id": 400,
                "is_primary": 1,
                "email": "",
                "phone": "+255747261152",
                "street": "-",
                "city_id": 2,
                "geo_id": null,
                "created_at": "2019-04-30T14:03:06.000000Z",
                "updated_at": "2019-07-03T10:18:18.000000Z",
                "owner": {
                    "id": 408,
                    "title": null,
                    "education": null,
                    "name": "Feruzi",
                    "surname": "Amali",
                    "birth_date": null,
                    "sex": null,
                    "nationality": null,
                    "created_at": "2019-04-30T14:03:06.000000Z",
                    "updated_at": "2020-03-04T19:59:00.000000Z",
                    "customer_group_id": null,
                    "is_customer": 1,
                    "deleted_at": null
                }
            }
        },
        {
            "id": 90614,
            "receiver": "+255745848735",
            "trigger_type": 0,
            "trigger_id": 104408,
            "body": "Meter Number:47000518218, Token : 6664 8965 0265 8232 7729, Amount:2450 TZs, MicroPowerManager",
            "status": 0,
            "uuid": null,
            "direction": 1,
            "sender_id": null,
            "created_at": "2019-11-19T00:00:00.000000Z",
            "updated_at": "2019-11-19T00:00:00.000000Z",
            "address": {
                "id": 2172,
                "is_primary": 1,
                "email": "",
                "phone": "+255745848735",
                "street": "",
                "city_id": 5,
                "geo_id": null,
                "created_at": "2019-07-02T15:55:33.000000Z",
                "updated_at": "2019-07-02T15:55:33.000000Z",
                "owner": {
                    "id": 1333,
                    "title": null,
                    "education": null,
                    "name": "Adla",
                    "surname": "Amaziah",
                    "birth_date": null,
                    "sex": null,
                    "nationality": null,
                    "created_at": "2019-07-02T15:55:33.000000Z",
                    "updated_at": "2020-03-04T19:59:11.000000Z",
                    "customer_group_id": null,
                    "is_customer": 1,
                    "deleted_at": null
                }
            }
        },
        {
            "id": 90579,
            "receiver": "+255754735910",
            "trigger_type": 0,
            "trigger_id": 104373,
            "body": "Meter Number:47000506403, Token : 6664 8965 0265 8232 7729, Amount:4246 TZs, MicroPowerManager",
            "status": 0,
            "uuid": null,
            "direction": 1,
            "sender_id": null,
            "created_at": "2019-04-23T00:00:00.000000Z",
            "updated_at": "2019-04-23T00:00:00.000000Z",
            "address": {
                "id": 1953,
                "is_primary": 1,
                "email": "",
                "phone": "+255754735910",
                "street": "",
                "city_id": 4,
                "geo_id": null,
                "created_at": "2019-06-24T16:20:40.000000Z",
                "updated_at": "2019-06-24T16:20:40.000000Z",
                "owner": {
                    "id": 1114,
                    "title": null,
                    "education": null,
                    "name": "Nikusubila",
                    "surname": "Zaramo",
                    "birth_date": null,
                    "sex": null,
                    "nationality": null,
                    "created_at": "2019-06-24T16:20:40.000000Z",
                    "updated_at": "2020-03-04T19:59:09.000000Z",
                    "customer_group_id": null,
                    "is_customer": 1,
                    "deleted_at": null
                }
            }
        }
    ],
    "first_page_url": "https:\/\/demo.micropowermanager.com\/api\/sms?page=1",
    "from": 1,
    "last_page": 447,
    "last_page_url": "https:\/\/demo.micropowermanager.com\/api\/sms?page=447",
    "next_page_url": "https:\/\/demo.micropowermanager.com\/api\/sms?page=2",
    "path": "https:\/\/demo.micropowermanager.com\/api\/sms",
    "per_page": 20,
    "prev_page_url": null,
    "to": 20,
    "total": 8939
}
