{
    "data": {
        "current_page": 1,
        "data": [
            {
                "id": 105182,
                "original_transaction_id": 97282,
                "original_transaction_type": "vodacom_transaction",
                "amount": 5027,
                "type": "energy",
                "sender": "+255778354389",
                "message": "47000511551",
                "created_at": "2021-02-17T00:00:00.000000Z",
                "updated_at": "2021-02-17T10:01:38.000000Z",
                "original_transaction": {
                    "id": 97282,
                    "conversation_id": "YOA2rj6CsAcuST7dEjL4",
                    "originator_conversation_id": "ynL3BE8yZqphCD43FLHB",
                    "mpesa_receipt": "7pFMbR4cAU",
                    "transaction_date": "0000-00-00 00:00:00",
                    "transaction_id": "tN3sCizAmf",
                    "status": 1,
                    "created_at": "2021-02-17T00:00:00.000000Z",
                    "updated_at": "2021-02-17T00:00:00.000000Z",
                    "manufacturer_transaction_type": null,
                    "manufacturer_transaction_id": null
                }
            },
            {
                "id": 105596,
                "original_transaction_id": 97696,
                "original_transaction_type": "vodacom_transaction",
                "amount": 14019,
                "type": "energy",
                "sender": "+255723729065",
                "message": "47000511775",
                "created_at": "2021-02-16T00:00:00.000000Z",
                "updated_at": "2021-02-17T19:40:47.000000Z",
                "original_transaction": {
                    "id": 97696,
                    "conversation_id": "XJkMOvVYx7W1rlQqKWme",
                    "originator_conversation_id": "wTtXdCTnI0fi2bXUeTmU",
                    "mpesa_receipt": "l2mD0j2Cm0",
                    "transaction_date": "0000-00-00 00:00:00",
                    "transaction_id": "1Xhxa99Fxb",
                    "status": 1,
                    "created_at": "2021-02-16T00:00:00.000000Z",
                    "updated_at": "2021-02-16T00:00:00.000000Z",
                    "manufacturer_transaction_type": null,
                    "manufacturer_transaction_id": null
                }
            },
            {
                "id": 105479,
                "original_transaction_id": 97579,
                "original_transaction_type": "vodacom_transaction",
                "amount": 16052,
                "type": "energy",
                "sender": "+255772558537",
                "message": "47000507096",
                "created_at": "2021-02-15T00:00:00.000000Z",
                "updated_at": "2021-02-17T19:37:20.000000Z",
                "original_transaction": {
                    "id": 97579,
                    "conversation_id": "W5q6UZ3v1mVZrjJPLsYz",
                    "originator_conversation_id": "xG4TvFqNaLuAnmOqMaW9",
                    "mpesa_receipt": "AQQbkQCSKh",
                    "transaction_date": "0000-00-00 00:00:00",
                    "transaction_id": "H7Oe58moSn",
                    "status": 1,
                    "created_at": "2021-02-15T00:00:00.000000Z",
                    "updated_at": "2021-02-15T00:00:00.000000Z",
                    "manufacturer_transaction_type": null,
                    "manufacturer_transaction_id": null
                }
            },
            {
                "id": 105312,
                "original_transaction_id": 97412,
                "original_transaction_type": "vodacom_transaction",
                "amount": 5732,
                "type": "energy",
                "sender": "+255786823633",
                "message": "47000318676",
                "created_at": "2021-02-15T00:00:00.000000Z",
                "updated_at": "2021-02-17T19:30:44.000000Z",
                "original_transaction": {
                    "id": 97412,
                    "conversation_id": "Fl096V5HQsQyfyidsR4t",
                    "originator_conversation_id": "tic2aEARWLJXWmIGYZ4C",
                    "mpesa_receipt": "KutZJa0XGF",
                    "transaction_date": "0000-00-00 00:00:00",
                    "transaction_id": "5ztSQnDf94",
                    "status": 1,
                    "created_at": "2021-02-15T00:00:00.000000Z",
                    "updated_at": "2021-02-15T00:00:00.000000Z",
                    "manufacturer_transaction_type": null,
                    "manufacturer_transaction_id": null
                }
            },
            {
                "id": 105142,
                "original_transaction_id": 97242,
                "original_transaction_type": "vodacom_transaction",
                "amount": 13720,
                "type": "energy",
                "sender": "+255748126295",
                "message": "47000519794",
                "created_at": "2021-02-15T00:00:00.000000Z",
                "updated_at": "2021-02-17T10:01:26.000000Z",
                "original_transaction": {
                    "id": 97242,
                    "conversation_id": "y7Hwm0ZmzeuLsDcJNqYv",
                    "originator_conversation_id": "XRrDmpQCEj2wQvFjouGV",
                    "mpesa_receipt": "MSMTmoz9JT",
                    "transaction_date": "0000-00-00 00:00:00",
                    "transaction_id": "EneKo0qTKb",
                    "status": 1,
                    "created_at": "2021-02-15T00:00:00.000000Z",
                    "updated_at": "2021-02-15T00:00:00.000000Z",
                    "manufacturer_transaction_type": null,
                    "manufacturer_transaction_id": null
                }
            },
            {
                "id": 105927,
                "original_transaction_id": 98027,
                "original_transaction_type": "vodacom_transaction",
                "amount": 18156,
                "type": "energy",
                "sender": "+255795636969",
                "message": "47000506361",
                "created_at": "2021-02-15T00:00:00.000000Z",
                "updated_at": "2021-02-17T19:41:13.000000Z",
                "original_transaction": {
                    "id": 98027,
                    "conversation_id": "PBaGlw61gTYGCIq8TNLi",
                    "originator_conversation_id": "vhGWNERaUWf0MbSE4dcc",
                    "mpesa_receipt": "5BLx8iKRG7",
                    "transaction_date": "0000-00-00 00:00:00",
                    "transaction_id": "8zHT54yQmV",
                    "status": 1,
                    "created_at": "2021-02-15T00:00:00.000000Z",
                    "updated_at": "2021-02-15T00:00:00.000000Z",
                    "manufacturer_transaction_type": null,
                    "manufacturer_transaction_id": null
                }
            },
            {
                "id": 105420,
                "original_transaction_id": 97520,
                "original_transaction_type": "vodacom_transaction",
                "amount": 12332,
                "type": "energy",
                "sender": "+255790745790",
                "message": "47000508094",
                "created_at": "2021-02-15T00:00:00.000000Z",
                "updated_at": "2021-02-17T19:37:15.000000Z",
                "original_transaction": {
                    "id": 97520,
                    "conversation_id": "ycPvYSo9CKjqay47KjBB",
                    "originator_conversation_id": "UQmbvoFROaO44KLA3BLT",
                    "mpesa_receipt": "fT0fIRbuhW",
                    "transaction_date": "0000-00-00 00:00:00",
                    "transaction_id": "BVQrupRHr4",
                    "status": 1,
                    "created_at": "2021-02-15T00:00:00.000000Z",
                    "updated_at": "2021-02-15T00:00:00.000000Z",
                    "manufacturer_transaction_type": null,
                    "manufacturer_transaction_id": null
                }
            },
            {
                "id": 105192,
                "original_transaction_id": 97292,
                "original_transaction_type": "vodacom_transaction",
                "amount": 12365,
                "type": "energy",
                "sender": "+255783446029",
                "message": "47000504895",
                "created_at": "2021-02-15T00:00:00.000000Z",
                "updated_at": "2021-02-17T10:01:41.000000Z",
                "original_transaction": {
                    "id": 97292,
                    "conversation_id": "T8chhydbyEFGQyeEAt4n",
                    "originator_conversation_id": "yJcgcqW63nG46lA1j6fT",
                    "mpesa_receipt": "VVxM76QU2o",
                    "transaction_date": "0000-00-00 00:00:00",
                    "transaction_id": "fw4UzPYNkr",
                    "status": 1,
                    "created_at": "2021-02-15T00:00:00.000000Z",
                    "updated_at": "2021-02-15T00:00:00.000000Z",
                    "manufacturer_transaction_type": null,
                    "manufacturer_transaction_id": null
                }
            },
            {
                "id": 105898,
                "original_transaction_id": 97998,
                "original_transaction_type": "vodacom_transaction",
                "amount": 9354,
                "type": "energy",
                "sender": "+255721954035",
                "message": "47000510173",
                "created_at": "2021-02-14T00:00:00.000000Z",
                "updated_at": "2021-02-17T19:41:10.000000Z",
                "original_transaction": {
                    "id": 97998,
                    "conversation_id": "VkZ1G5ZcstTMnYBW8r9G",
                    "originator_conversation_id": "OJHND37EIfOGuYYSUpjq",
                    "mpesa_receipt": "2Q4zwKyShq",
                    "transaction_date": "0000-00-00 00:00:00",
                    "transaction_id": "lriNj8ZREa",
                    "status": 1,
                    "created_at": "2021-02-14T00:00:00.000000Z",
                    "updated_at": "2021-02-14T00:00:00.000000Z",
                    "manufacturer_transaction_type": null,
                    "manufacturer_transaction_id": null
                }
            },
            {
                "id": 105597,
                "original_transaction_id": 97697,
                "original_transaction_type": "vodacom_transaction",
                "amount": 6937,
                "type": "energy",
                "sender": "+255713591327",
                "message": "47000504952",
                "created_at": "2021-02-13T00:00:00.000000Z",
                "updated_at": "2021-02-17T19:40:47.000000Z",
                "original_transaction": {
                    "id": 97697,
                    "conversation_id": "JFd8dFP1oj1yjszeW8uf",
                    "originator_conversation_id": "RDEydrqZ3POM3Uh8oRCQ",
                    "mpesa_receipt": "AkV0PKrVfm",
                    "transaction_date": "0000-00-00 00:00:00",
                    "transaction_id": "EdHzZfuR6S",
                    "status": 1,
                    "created_at": "2021-02-13T00:00:00.000000Z",
                    "updated_at": "2021-02-13T00:00:00.000000Z",
                    "manufacturer_transaction_type": null,
                    "manufacturer_transaction_id": null
                }
            },
            {
                "id": 105849,
                "original_transaction_id": 97949,
                "original_transaction_type": "vodacom_transaction",
                "amount": 2764,
                "type": "energy",
                "sender": "+255735352453",
                "message": "47000512278",
                "created_at": "2021-02-12T00:00:00.000000Z",
                "updated_at": "2021-02-17T19:41:07.000000Z",
                "original_transaction": {
                    "id": 97949,
                    "conversation_id": "zeQsCqDOABGXx6Y0rBvU",
                    "originator_conversation_id": "6Ywvv314Pw51ytodl01O",
                    "mpesa_receipt": "1DL5QHo44E",
                    "transaction_date": "0000-00-00 00:00:00",
                    "transaction_id": "P42EJGH0Bx",
                    "status": 1,
                    "created_at": "2021-02-12T00:00:00.000000Z",
                    "updated_at": "2021-02-12T00:00:00.000000Z",
                    "manufacturer_transaction_type": null,
                    "manufacturer_transaction_id": null
                }
            },
            {
                "id": 105655,
                "original_transaction_id": 97755,
                "original_transaction_type": "vodacom_transaction",
                "amount": 19674,
                "type": "energy",
                "sender": "+255736412090",
                "message": "47000508136",
                "created_at": "2021-02-12T00:00:00.000000Z",
                "updated_at": "2021-02-17T19:40:52.000000Z",
                "original_transaction": {
                    "id": 97755,
                    "conversation_id": "iBEOJg9CXT3JR3XzlTMt",
                    "originator_conversation_id": "WwvgGhAZoYgQFMC192pd",
                    "mpesa_receipt": "iZ7dTqjl9R",
                    "transaction_date": "0000-00-00 00:00:00",
                    "transaction_id": "jgESpYvwf2",
                    "status": 1,
                    "created_at": "2021-02-12T00:00:00.000000Z",
                    "updated_at": "2021-02-12T00:00:00.000000Z",
                    "manufacturer_transaction_type": null,
                    "manufacturer_transaction_id": null
                }
            },
            {
                "id": 105873,
                "original_transaction_id": 97973,
                "original_transaction_type": "vodacom_transaction",
                "amount": 19227,
                "type": "energy",
                "sender": "+255716924207",
                "message": "47000506635",
                "created_at": "2021-02-11T00:00:00.000000Z",
                "updated_at": "2021-02-17T19:41:09.000000Z",
                "original_transaction": {
                    "id": 97973,
                    "conversation_id": "wzZSYK6z66tVSpQsxJv3",
                    "originator_conversation_id": "erxpHyHbQF4Hp7tYqVxS",
                    "mpesa_receipt": "FeL2nWHPbt",
                    "transaction_date": "0000-00-00 00:00:00",
                    "transaction_id": "f1caAC9h4v",
                    "status": 1,
                    "created_at": "2021-02-11T00:00:00.000000Z",
                    "updated_at": "2021-02-11T00:00:00.000000Z",
                    "manufacturer_transaction_type": null,
                    "manufacturer_transaction_id": null
                }
            },
            {
                "id": 105935,
                "original_transaction_id": 98035,
                "original_transaction_type": "vodacom_transaction",
                "amount": 6826,
                "type": "energy",
                "sender": "+255754685459",
                "message": "47000512385",
                "created_at": "2021-02-11T00:00:00.000000Z",
                "updated_at": "2021-02-17T19:41:13.000000Z",
                "original_transaction": {
                    "id": 98035,
                    "conversation_id": "1VKZBbOvicIV1jzRtXtj",
                    "originator_conversation_id": "4NuzrWNX7ORdGHSVLMzm",
                    "mpesa_receipt": "EZQ2iK9nJF",
                    "transaction_date": "0000-00-00 00:00:00",
                    "transaction_id": "gRoyo9CO24",
                    "status": 1,
                    "created_at": "2021-02-11T00:00:00.000000Z",
                    "updated_at": "2021-02-11T00:00:00.000000Z",
                    "manufacturer_transaction_type": null,
                    "manufacturer_transaction_id": null
                }
            },
            {
                "id": 105319,
                "original_transaction_id": 97419,
                "original_transaction_type": "vodacom_transaction",
                "amount": 17455,
                "type": "energy",
                "sender": "+255783820223",
                "message": "47000506551",
                "created_at": "2021-02-10T00:00:00.000000Z",
                "updated_at": "2021-02-17T19:30:45.000000Z",
                "original_transaction": {
                    "id": 97419,
                    "conversation_id": "0uz0Clo7FsFCstuOILna",
                    "originator_conversation_id": "K0H6bV4NZuvjAsdmrAxZ",
                    "mpesa_receipt": "nzG9JKcqDw",
                    "transaction_date": "0000-00-00 00:00:00",
                    "transaction_id": "wz91t3enlf",
                    "status": 1,
                    "created_at": "2021-02-10T00:00:00.000000Z",
                    "updated_at": "2021-02-10T00:00:00.000000Z",
                    "manufacturer_transaction_type": null,
                    "manufacturer_transaction_id": null
                }
            }
        ],
        "first_page_url": "http://mpmanager.local/api/transactions?page=1",
        "from": 1,
        "last_page": 644,
        "last_page_url": "http://mpmanager.local/api/transactions?page=644",
        "next_page_url": "http://mpmanager.local/api/transactions?page=2",
        "path": "http://mpmanager.local/api/transactions",
        "per_page": 15,
        "prev_page_url": null,
        "to": 15,
        "total": 9658
    },
    "status": 200
}
