{
    "current_page": 1,
    "data": [
        {
            "id": 1,
            "serial_number": "12312123",
            "meter_type_id": 1,
            "in_use": 1,
            "manufacturer_id": 1,
            "created_at": "2018-06-22 11:50:09",
            "updated_at": "2018-12-17 14:20:23",
            "deleted_at": null,
            "meter_type": {
                "id": 1,
                "online": 0,
                "phase": 1,
                "max_current": 10,
                "created_at": "2018-06-22 08:15:12",
                "updated_at": "2018-06-22 08:15:12"
            },
            "meter_parameter": {
                "id": 1,
                "connection_type_id": 1,
                "created_at": "2018-06-22 11:59:46",
                "updated_at": "2018-12-17 14:20:23",
                "connection_group_id": 1,
                "tariff": {
                    "id": 1,
                    "name": "Productiove Usage",
                    "price": 200,
                    "currency": "EUR",
                    "factor": 1,
                    "created_at": "2018-07-27 15:32:42",
                    "updated_at": "2018-07-27 15:32:42",
                    "deleted_at": null
                }
            }
        }
    ],
    "first_page_url": "http://mpmanager.local/api/meters?page=1",
    "from": 1,
    "last_page": 324,
    "last_page_url": "http://mpmanager.local/api/meters?page=324",
    "next_page_url": "http://mpmanager.local/api/meters?page=2",
    "path": "http://mpmanager.local/api/meters",
    "per_page": 15,
    "prev_page_url": null,
    "to": 15,
    "total": 4852
}
